{
 "signatures": [
  {
   "keyid": "3c17ae786fb76c71eb49e1cea989cb40bc6b6f846d1e542f7f91a70fe7ffedb7",
   "sig": "intentionally-invalid"
  },
  {
   "keyid": "4440246e35855835d6dfe2826a2b81ccf178503a59b4a9b8618ba3ec32aa7432",
   "sig": "intentionally-invalid"
  }
 ],
 "signed": {
  "_type": "root",
  "consistent_snapshot": false,
  "expires": "2023-05-04T20:40:53Z",
  "keys": {
   "32e2e1fd6a4fc92a68e1120dd4c03e667cf218d8cfdef4d1b6a7673c687c80a0": {
    "keytype": "ed25519",
    "keyval": {
     "public": "fab0f6914468c40f1648c8b2f7272457106ac39473831b4efef9373f8b403878"
    },
    "scheme": "ed25519"
   },
   "3c17ae786fb76c71eb49e1cea989cb40bc6b6f846d1e542f7f91a70fe7ffedb7": {
    "keytype": "ed25519",
    "keyval": {
     "public": "d392ffdba3b5f1dbb2881574235ff203b679f8b215f0b69e0028a39dd4f6763d"
    },
    "scheme": "ed25519"
   },
   "3f6625444fc1749ab262aff773175e8eb8b23f395c023480d022fd8072a9b75d": {
    "keytype": "ed25519",
    "keyval": {
     "public": "dfc4fc41a58da43f634de9f051086eecff1145204c4a6886d1ad7ed29dc75f3d"
    },
    "scheme": "ed25519"
   },
   "4440246e35855835d6dfe2826a2b81ccf178503a59b4a9b8618ba3ec32aa7432": {
    "keytype": "ed25519",
    "keyval": {
     "public": "77c60fa7e7d7c13786a3c268c0f2c9b0a564e076312acd4566cb9a5f08e157be"
    },
    "scheme": "ed25519"
   },
   "d60cc6399cbc70863a4fb4b22302051a5a442c0f0be0e1bcc8c439ebb214f42a": {
    "keytype": "ed25519",
    "keyval": {
     "public": "b06975a2c7399fde1d7b1291b0a3dd2222896e2de6aa3031752ee18d8b17d344"
    },
    "scheme": "ed25519"
   }
  },
  "roles": {
   "root": {
    "keyids": [
     "3c17ae786fb76c71eb49e1cea989cb40bc6b6f846d1e542f7f91a70fe7ffedb7",
     "4440246e35855835d6dfe2826a2b81ccf178503a59b4a9b8618ba3ec32aa7432"
    ],
    "threshold": 1
   },
   "snapshot": {
    "keyids": [
     "32e2e1fd6a4fc92a68e1120dd4c03e667cf218d8cfdef4d1b6a7673c687c80a0"
    ],
    "threshold": 1
   },
   "targets": {
    "keyids": [
     "3f6625444fc1749ab262aff773175e8eb8b23f395c023480d022fd8072a9b75d"
    ],
    "threshold": 1
   },
   "timestamp": {
    "keyids": [
     "d60cc6399cbc70863a4fb4b22302051a5a442c0f0be0e1bcc8c439ebb214f42a"
    ],
    "threshold": 1
   }
  },
  "spec_version": "1.0.28",
  "version": 1
 }
}
