{
    "name": "rugged/tuf-test",
    "description": "Minimalist Drupal 9 project for testing Composer TUF plugin.",
    "type": "project",
    "repositories": [
        {
            "type": "vcs",
            "url": "https://github.com/php-tuf/composer-integration"
        },
        {
            "type": "vcs",
            "url": "https://github.com/php-tuf/php-tuf"
        }
    ],
    "require": {
        "composer/installers": "^1.9",
        "drupal/core-composer-scaffold": "^9.2",
        "drupal/core-recommended": "^9.2",
        "php-tuf/composer-integration": "*"
    },
    "minimum-stability": "dev",
    "prefer-stable": true,
    "config": {
        "sort-packages": true,
        "github-oauth": {
            "github.com": "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"
        },
        "preferred-install": {
            "php-tuf/*": "source"
        },
        "allow-plugins": {
            "composer/installers": true,
            "drupal/core-composer-scaffold": true,
            "php-tuf/composer-integration": true
        }
    },
    "extra": {
        "drupal-scaffold": {
            "locations": {
                "web-root": "web/"
            }
        },
        "installer-paths": {
            "web/core": [
                "type:drupal-core"
            ],
            "web/libraries/{$name}": [
                "type:drupal-library"
            ],
            "web/modules/contrib/{$name}": [
                "type:drupal-module"
            ],
            "web/profiles/contrib/{$name}": [
                "type:drupal-profile"
            ],
            "web/themes/contrib/{$name}": [
                "type:drupal-theme"
            ],
            "drush/Commands/contrib/{$name}": [
                "type:drupal-drush"
            ],
            "web/modules/custom/{$name}": [
                "type:drupal-custom-module"
            ],
            "web/profiles/custom/{$name}": [
                "type:drupal-custom-profile"
            ],
            "web/themes/custom/{$name}": [
                "type:drupal-custom-theme"
            ]
        }
    }
}
